2016-05-30 11:46:14,005 [23] ERROR - Form: frmLogin, Method: BindCombo()
2016-05-30 11:46:14,014 [6] ERROR - Form: frmLogin, Method: BindCombo()
2016-05-30 11:46:16,143 [23] ERROR - Form: frmLogin, Method: GetApplicationParameters() 
2016-05-30 11:46:16,155 [6] ERROR - Form: frmLogin, Method: GetApplicationParameters() 
2016-05-30 11:46:18,486 [23] ERROR - Form: frmLogin, Method: BindCombo()
2016-05-30 11:46:20,503 [23] ERROR - Form: frmLogin, Method: GetApplicationParameters() 
2016-05-30 11:46:22,896 [6] ERROR - Form: frmLogin, Method: BindCombo()
2016-05-30 11:46:24,912 [6] ERROR - Form: frmLogin, Method: GetApplicationParameters() 
